<svg width="10" height="10" viewBox="0 0 10 10" fill="none" xmlns="http://www.w3.org/2000/svg">
<path d="M0 4H2V10H0V4Z" fill="black"/>
<path d="M4 2H6V10H4V2Z" fill="black"/>
<path d="M8 0H10V10H8V0Z" fill="black"/>
</svg>
